10	8	289	144
11	1	7440	0	100	9300	3	0.875	9300
60	76	7680	0	100	9600	4	0	9600
62	77	7920	0	100	9900	4	0.125	300
63	78	8160	0	100	10200	4	0.25	300
62	76	8400	0	100	10500	4	0.375	300
60	73	8640	0	100	10800	4	0.5	300
62	77	8880	0	100	11100	4	0.625	300
63	79	9120	0	100	11400	4	0.75	300
62	76	9360	0	100	11700	4	0.875	300
60	72	9600	0	100	12000	5	0	300
62	77	9840	0	100	12300	5	0.125	300
63	79	10080	0	100	12600	5	0.25	300
62	76	10320	0	100	12900	5	0.375	300
60	72	10560	0	100	13200	5	0.5	300
62	77	10800	0	100	13500	5	0.625	300
63	79	11040	0	100	13800	5	0.75	300
62	76	11280	0	100	14100	5	0.875	300
63	78	11520	0	100	14400	6	0	300
11	1	12960	0	100	16200	6	0.75	1800
63	76	13440	0	100	16800	7	0	2400
11	1	13680	0	100	17100	7	0.125	300
7	1	22560	0	100	28200	11	0.75	11400
9	1	22560	0	100	28200	11	0.75	11400
53	76	22560	0	100	28200	11	0.75	11400
11	1	22800	0	100	28500	11	0.875	300
53	76	23040	0	100	28800	12	0	600
58	80	23520	0	100	29400	12	0.25	600
60	81	23760	0	100	29700	12	0.375	300
62	83	24000	0	100	30000	12	0.5	300
58	75	24480	0	100	30600	12	0.75	600
57	73	24720	0	100	30900	12	0.875	300
55	70	24960	0	100	31200	13	0	300
63	84	25440	0	100	31800	13	0.25	600
63	82	25680	0	100	32100	13	0.375	300
63	81	25920	0	100	32400	13	0.5	300
11	1	26160	0	100	32700	13	0.625	300
7	2	26400	0	100	33000	13	0.75	600
62	77	26400	0	100	33000	13	0.75	600
63	78	26640	0	100	33300	13	0.875	300
65	81	26880	0	100	33600	14	0	300
11	1	27120	0	100	33900	14	0.125	300
58	69	27360	0	100	34200	14	0.25	600
58	70	27600	0	100	34500	14	0.375	300
58	72	27840	0	100	34800	14	0.5	300
11	1	28080	0	100	35100	14	0.625	300
57	73	28320	0	100	35400	14	0.75	600
58	76	28560	0	100	35700	14	0.875	300
60	80	28800	0	100	36000	15	0	300
11	1	29760	0	100	37200	15	0.5	1200
8	1	30240	0	100	37800	15	0.75	1800
53	75	30240	0	100	37800	15	0.75	1800
53	76	30720	0	100	38400	16	0	600
58	80	31200	0	100	39000	16	0.25	600
60	81	31440	0	100	39300	16	0.375	300
62	83	31680	0	100	39600	16	0.5	300
58	75	32160	0	100	40200	16	0.75	600
57	73	32400	0	100	40500	16	0.875	300
55	70	32640	0	100	40800	17	0	300
11	1	32880	0	100	41100	17	0.125	300
65	85	33120	0	100	41400	17	0.25	600
65	84	33360	0	100	41700	17	0.375	300
65	82	33600	0	100	42000	17	0.5	300
11	1	33840	0	100	42300	17	0.625	300
65	79	34080	0	100	42600	17	0.75	600
65	78	34320	0	100	42900	17	0.875	300
62	72	34560	0	100	43200	18	0	300
60	71	35040	0	100	43800	18	0.25	600
58	69	35280	0	100	44100	18	0.375	300
57	69	35520	0	100	44400	18	0.5	300
58	73	35760	0	100	44700	18	0.625	300
60	81	36240	0	100	45300	18	0.875	600
58	76	36480	0	100	45600	19	0	300
11	1	37920	0	100	47400	19	0.75	1800
7	3	38400	0	100	48000	20	0	2400
9	2	38400	0	100	48000	20	0	2400
70	77	38400	0	100	48000	20	0	2400
70	76	38880	0	100	48600	20	0.25	600
69	75	39360	0	100	49200	20	0.5	600
69	76	39840	0	100	49800	20	0.75	600
11	1	40080	0	100	50100	20	0.875	300
70	77	40320	0	100	50400	21	0	600
70	77	40800	0	100	51000	21	0.25	600
70	76	41280	0	100	51600	21	0.5	600
70	76	41760	0	100	52200	21	0.75	600
11	1	42000	0	100	52500	21	0.875	300
7	4	42240	0	100	52800	22	0	600
65	71	42240	0	100	52800	22	0	600
65	74	42720	0	100	53400	22	0.25	600
67	77	43200	0	100	54000	22	0.5	600
67	77	43680	0	100	54600	22	0.75	600
65	75	44160	0	100	55200	23	0	600
67	77	44640	0	100	55800	23	0.25	600
69	79	45120	0	100	56400	23	0.5	600
53	67	45600	0	100	57000	23	0.75	600
7	5	46080	0	100	57600	24	0	600
9	3	46080	0	100	57600	24	0	600
53	71	46080	0	100	57600	24	0	600
58	78	46560	0	100	58200	24	0.25	600
60	80	46800	0	100	58500	24	0.375	300
62	83	47040	0	100	58800	24	0.5	300
11	1	47280	0	100	59100	24	0.625	300
58	75	47520	0	100	59400	24	0.75	600
57	73	47760	0	100	59700	24	0.875	300
55	70	48000	0	100	60000	25	0	300
63	84	48480	0	100	60600	25	0.25	600
63	82	48720	0	100	60900	25	0.375	300
63	81	48960	0	100	61200	25	0.5	300
11	1	49200	0	100	61500	25	0.625	300
63	78	49440	0	100	61800	25	0.75	600
63	77	49680	0	100	62100	25	0.875	300
7	6	49920	0	100	62400	26	0	300
62	75	49920	0	100	62400	26	0	300
60	72	50400	0	100	63000	26	0.25	600
58	70	50640	0	100	63300	26	0.375	300
57	70	50880	0	100	63600	26	0.5	300
58	74	51120	0	100	63900	26	0.625	300
60	81	51600	0	100	64500	26	0.875	600
58	76	51840	0	100	64800	27	0	300
11	1	53280	0	100	66600	27	0.75	1800
7	7	53760	0	100	67200	28	0	2400
9	4	53760	0	100	67200	28	0	2400
11	1	53760	0	100	67200	28	0	2400
70	77	54000	0	100	67500	28	0.125	2700
11	1	54240	0	100	67800	28	0.25	300
70	76	54480	0	100	68100	28	0.375	600
11	1	54720	0	100	68400	28	0.5	300
70	76	54960	0	100	68700	28	0.625	600
11	1	55200	0	100	69000	28	0.75	300
70	76	55440	0	100	69300	28	0.875	600
11	1	55680	0	100	69600	29	0	300
68	74	55920	0	100	69900	29	0.125	600
11	1	56160	0	100	70200	29	0.25	300
68	75	56400	0	100	70500	29	0.375	600
11	1	56640	0	100	70800	29	0.5	300
70	78	56880	0	100	71100	29	0.625	600
11	1	57120	0	100	71400	29	0.75	300
70	77	57360	0	100	71700	29	0.875	600
7	8	57600	0	100	72000	30	0	300
11	1	57600	0	100	72000	30	0	300
70	77	57840	0	100	72300	30	0.125	600
11	1	58080	0	100	72600	30	0.25	300
70	76	58320	0	100	72900	30	0.375	600
11	1	58560	0	100	73200	30	0.5	300
70	76	58800	0	100	73500	30	0.625	600
11	1	59040	0	100	73800	30	0.75	300
70	76	59280	0	100	74100	30	0.875	600
11	1	59520	0	100	74400	31	0	300
70	76	59760	0	100	74700	31	0.125	600
11	1	60000	0	100	75000	31	0.25	300
70	76	60240	0	100	75300	31	0.375	600
11	1	60480	0	100	75600	31	0.5	300
72	78	60720	0	100	75900	31	0.625	600
72	78	60960	0	100	76200	31	0.75	300
8	1	61440	0	100	76800	32	0	600
11	1	61440	0	100	76800	32	0	600
70	75	61680	0	100	77100	32	0.125	900
11	1	61920	0	100	77400	32	0.25	300
70	75	62160	0	100	77700	32	0.375	600
11	1	62400	0	100	78000	32	0.5	300
70	76	62640	0	100	78300	32	0.625	600
11	1	62880	0	100	78600	32	0.75	300
70	76	63120	0	100	78900	32	0.875	600
11	1	63360	0	100	79200	33	0	300
68	74	63600	0	100	79500	33	0.125	600
11	1	63840	0	100	79800	33	0.25	300
68	75	64080	0	100	80100	33	0.375	600
11	1	64320	0	100	80400	33	0.5	300
70	78	64560	0	100	80700	33	0.625	600
11	1	64800	0	100	81000	33	0.75	300
70	77	65040	0	100	81300	33	0.875	600
11	1	65280	0	100	81600	34	0	300
70	77	65520	0	100	81900	34	0.125	600
11	1	65760	0	100	82200	34	0.25	300
70	76	66000	0	100	82500	34	0.375	600
11	1	66240	0	100	82800	34	0.5	300
70	76	66480	0	100	83100	34	0.625	600
11	1	66720	0	100	83400	34	0.75	300
70	76	66960	0	100	83700	34	0.875	600
11	1	67200	0	100	84000	35	0	300
11	1	69120	0	100	86400	36	0	2700
77	38	69360	0	100	86700	36	0.125	3000
11	1	69600	0	100	87000	36	0.25	300
77	38	69840	0	100	87300	36	0.375	600
11	1	70080	0	100	87600	36	0.5	300
77	38	70320	0	100	87900	36	0.625	600
77	38	70560	0	100	88200	36	0.75	300
77	38	70800	0	100	88500	36	0.875	300
11	1	71040	0	100	88800	37	0	300
77	38	71280	0	100	89100	37	0.125	600
11	1	71520	0	100	89400	37	0.25	300
77	38	71760	0	100	89700	37	0.375	600
11	1	72000	0	100	90000	37	0.5	300
77	38	72240	0	100	90300	37	0.625	600
77	38	72480	0	100	90600	37	0.75	300
77	38	72720	0	100	90900	37	0.875	300
11	1	72960	0	100	91200	38	0	300
77	38	73200	0	100	91500	38	0.125	600
11	1	73440	0	100	91800	38	0.25	300
77	38	73680	0	100	92100	38	0.375	600
11	1	73920	0	100	92400	38	0.5	300
77	38	74160	0	100	92700	38	0.625	600
11	1	74400	0	100	93000	38	0.75	300
77	38	74640	0	100	93300	38	0.875	600
11	1	74880	0	100	93600	39	0	300
11	1	76560	0	100	95700	39	0.875	2400
75	76	76800	0	100	96000	40	0	2700
11	1	77040	0	100	96300	40	0.125	300
75	76	77280	0	100	96600	40	0.25	600
11	1	77520	0	100	96900	40	0.375	300
75	76	77760	0	100	97200	40	0.5	600
11	1	78000	0	100	97500	40	0.625	300
75	76	78240	0	100	97800	40	0.75	600
11	1	78480	0	100	98100	40	0.875	300
75	76	78720	0	100	98400	41	0	600
11	1	78960	0	100	98700	41	0.125	300
75	76	79200	0	100	99000	41	0.25	600
77	79	79440	0	100	99300	41	0.375	300
75	75	79680	0	100	99600	41	0.5	300
74	74	79920	0	100	99900	41	0.625	300
72	70	80160	0	100	100200	41	0.75	300
75	78	80640	0	100	100800	42	0	600
11	1	80880	0	100	101100	42	0.125	300
75	77	81120	0	100	101400	42	0.25	600
11	1	81360	0	100	101700	42	0.375	300
75	77	81600	0	100	102000	42	0.5	600
11	1	81840	0	100	102300	42	0.625	300
75	76	82080	0	100	102600	42	0.75	600
11	1	82320	0	100	102900	42	0.875	300
75	76	82560	0	100	103200	43	0	600
11	1	82800	0	100	103500	43	0.125	300
74	75	83040	0	100	103800	43	0.25	600
72	73	83280	0	100	104100	43	0.375	300
74	77	83520	0	100	104400	43	0.5	300
72	73	83760	0	100	104700	43	0.625	300
75	80	84000	0	100	105000	43	0.75	300
11	1	84240	0	100	105300	43	0.875	300
70	71	84480	0	100	105600	44	0	600
11	1	84720	0	100	105900	44	0.125	300
70	73	84960	0	100	106200	44	0.25	600
11	1	85200	0	100	106500	44	0.375	300
70	75	85440	0	100	106800	44	0.5	600
70	75	85680	0	100	107100	44	0.625	300
70	76	85920	0	100	107400	44	0.75	300
70	76	86400	0	100	108000	45	0	600
11	1	86640	0	100	108300	45	0.125	300
70	76	86880	0	100	108600	45	0.25	600
11	1	87120	0	100	108900	45	0.375	300
68	74	87360	0	100	109200	45	0.5	600
68	75	87600	0	100	109500	45	0.625	300
68	75	87840	0	100	109800	45	0.75	300
70	78	88320	0	100	110400	46	0	600
11	1	88560	0	100	110700	46	0.125	300
70	77	88800	0	100	111000	46	0.25	600
11	1	89040	0	100	111300	46	0.375	300
70	77	89280	0	100	111600	46	0.5	600
70	77	89520	0	100	111900	46	0.625	300
70	76	89760	0	100	112200	46	0.75	300
11	1	90240	0	100	112800	47	0	600
70	76	90720	0	100	113400	47	0.25	1200
70	76	90960	0	100	113700	47	0.375	300
70	76	91200	0	100	114000	47	0.5	300
11	1	91680	0	100	114600	47	0.75	600
63	72	92160	0	100	115200	48	0	1200
62	72	92400	0	100	115500	48	0.125	300
63	75	92640	0	100	115800	48	0.25	300
62	74	92880	0	100	116100	48	0.375	300
63	77	93120	0	100	116400	48	0.5	300
62	75	93360	0	100	116700	48	0.625	300
63	77	93600	0	100	117000	48	0.75	300
62	75	93840	0	100	117300	48	0.875	300
75	88	94080	0	100	117600	49	0	300
74	88	94320	0	100	117900	49	0.125	300
75	87	94560	0	100	118200	49	0.25	300
74	84	94800	0	100	118500	49	0.375	300
75	84	95040	0	100	118800	49	0.5	300
74	79	95280	0	100	119100	49	0.625	300
75	80	95520	0	100	119400	49	0.75	300
74	76	95760	0	100	119700	49	0.875	300
75	78	96000	0	100	120000	50	0	300
11	1	97440	0	100	121800	50	0.75	1800
75	76	97920	0	100	122400	51	0	2400
11	1	99360	0	100	124200	51	0.75	1800
75	76	99840	0	100	124800	52	0	2400
11	1	100560	0	100	125700	52	0.375	900
75	79	100800	0	100	126000	52	0.5	1200
63	68	101040	0	100	126300	52	0.625	300
63	71	101520	0	100	126900	52	0.875	600
75	86	101760	0	100	127200	53	0	300
11	1	102000	0	100	127500	53	0.125	300